%YAML 1.1
%TAG !u! tag:unity3d.com,2011:
--- !u!136 &668821624
CapsuleCollider:
  m_ObjectHideFlags: 0
  m_CorrespondingSourceObject: {fileID: 0}
  m_PrefabInstance: {fileID: 0}
  m_PrefabAsset: {fileID: 0}
  m_GameObject: {fileID: 8836168898881665289}
  m_Material: {fileID: 0}
  m_IsTrigger: 0
  m_Enabled: 1
  m_Radius: 1.9463849
  m_Height: 4.2084913
  m_Direction: 1
  m_Center: {x: 0.32993555, y: 0, z: 0.27387714}
--- !u!143 &668821625
CharacterController:
  m_ObjectHideFlags: 0
  m_CorrespondingSourceObject: {fileID: 0}
  m_PrefabInstance: {fileID: 0}
  m_PrefabAsset: {fileID: 0}
  m_GameObject: {fileID: 8836168898881665289}
  m_Material: {fileID: 0}
  m_IsTrigger: 0
  m_Enabled: 1
  serializedVersion: 2
  m_Height: 2
  m_Radius: 0.5
  m_SlopeLimit: 5
  m_StepOffset: 0
  m_SkinWidth: 0.08
  m_MinMoveDistance: 0.001
  m_Center: {x: 0, y: 1, z: 0}
--- !u!114 &668821623
MonoBehaviour:
  m_ObjectHideFlags: 0
  m_CorrespondingSourceObject: {fileID: 0}
  m_PrefabInstance: {fileID: 0}
  m_PrefabAsset: {fileID: 0}
  m_GameObject: {fileID: 8836168898881665289}
  m_Enabled: 1
  m_EditorHideFlags: 0
  m_Script: {fileID: 11500000, guid: cf290c571140b1c4e837b956853d8a9c, type: 3}
  m_Name: 
  m_EditorClassIdentifier: 
  speed: 6
  zoomedSpeed: 6
  normalSpeed: 2
  camScriptRef: {fileID: 0}
--- !u!1001 &8837811689151506461
PrefabInstance:
  m_ObjectHideFlags: 0
  serializedVersion: 2
  m_Modification:
    m_TransformParent: {fileID: 0}
    m_Modifications:
    - target: {fileID: 1783563462218004, guid: 7f931d4b5c97d194d8726ddf5acdd440, type: 3}
      propertyPath: m_Name
      value: "PlayerStyl\xE9"
      objectReference: {fileID: 0}
    - target: {fileID: 4215789226532830, guid: 7f931d4b5c97d194d8726ddf5acdd440, type: 3}
      propertyPath: m_LocalPosition.x
      value: -2.96
      objectReference: {fileID: 0}
    - target: {fileID: 4215789226532830, guid: 7f931d4b5c97d194d8726ddf5acdd440, type: 3}
      propertyPath: m_LocalPosition.y
      value: 0.1
      objectReference: {fileID: 0}
    - target: {fileID: 4215789226532830, guid: 7f931d4b5c97d194d8726ddf5acdd440, type: 3}
      propertyPath: m_LocalPosition.z
      value: -2.42
      objectReference: {fileID: 0}
    - target: {fileID: 4215789226532830, guid: 7f931d4b5c97d194d8726ddf5acdd440, type: 3}
      propertyPath: m_LocalRotation.x
      value: -0
      objectReference: {fileID: 0}
    - target: {fileID: 4215789226532830, guid: 7f931d4b5c97d194d8726ddf5acdd440, type: 3}
      propertyPath: m_LocalRotation.y
      value: -0.34366205
      objectReference: {fileID: 0}
    - target: {fileID: 4215789226532830, guid: 7f931d4b5c97d194d8726ddf5acdd440, type: 3}
      propertyPath: m_LocalRotation.z
      value: -0
      objectReference: {fileID: 0}
    - target: {fileID: 4215789226532830, guid: 7f931d4b5c97d194d8726ddf5acdd440, type: 3}
      propertyPath: m_LocalRotation.w
      value: 0.9390934
      objectReference: {fileID: 0}
    - target: {fileID: 4215789226532830, guid: 7f931d4b5c97d194d8726ddf5acdd440, type: 3}
      propertyPath: m_RootOrder
      value: 0
      objectReference: {fileID: 0}
    - target: {fileID: 4215789226532830, guid: 7f931d4b5c97d194d8726ddf5acdd440, type: 3}
      propertyPath: m_LocalEulerAnglesHint.y
      value: -40.2
      objectReference: {fileID: 0}
    - target: {fileID: 4215789226532830, guid: 7f931d4b5c97d194d8726ddf5acdd440, type: 3}
      propertyPath: m_LocalScale.x
      value: 0.45
      objectReference: {fileID: 0}
    - target: {fileID: 4215789226532830, guid: 7f931d4b5c97d194d8726ddf5acdd440, type: 3}
      propertyPath: m_LocalScale.y
      value: 0.45
      objectReference: {fileID: 0}
    - target: {fileID: 4215789226532830, guid: 7f931d4b5c97d194d8726ddf5acdd440, type: 3}
      propertyPath: m_LocalScale.z
      value: 0.45
      objectReference: {fileID: 0}
    - target: {fileID: 4580663231443820, guid: 7f931d4b5c97d194d8726ddf5acdd440, type: 3}
      propertyPath: m_LocalRotation.y
      value: -0.69201744
      objectReference: {fileID: 0}
    - target: {fileID: 4580663231443820, guid: 7f931d4b5c97d194d8726ddf5acdd440, type: 3}
      propertyPath: m_LocalRotation.w
      value: 0.6920175
      objectReference: {fileID: 0}
    - target: {fileID: 95319451835724688, guid: 7f931d4b5c97d194d8726ddf5acdd440,
        type: 3}
      propertyPath: m_Controller
      value: 
      objectReference: {fileID: 9100000, guid: e761ace889a78a946967af8d6890f71d, type: 2}
    m_RemovedComponents: []
  m_SourcePrefab: {fileID: 100100000, guid: 7f931d4b5c97d194d8726ddf5acdd440, type: 3}
--- !u!1 &8836168898881665289 stripped
GameObject:
  m_CorrespondingSourceObject: {fileID: 1783563462218004, guid: 7f931d4b5c97d194d8726ddf5acdd440,
    type: 3}
  m_PrefabInstance: {fileID: 8837811689151506461}
  m_PrefabAsset: {fileID: 0}
